%YAML 1.1
%TAG !u! tag:unity3d.com,2011:
--- !u!1001 &100100000
Prefab:
  m_ObjectHideFlags: 1
  serializedVersion: 2
  m_Modification:
    m_TransformParent: {fileID: 0}
    m_Modifications: []
    m_RemovedComponents: []
  m_SourcePrefab: {fileID: 0}
  m_RootGameObject: {fileID: 1282012895711596}
  m_IsPrefabAsset: 1
--- !u!1 &1282012895711596
GameObject:
  m_ObjectHideFlags: 0
  m_CorrespondingSourceObject: {fileID: 0}
  m_PrefabInternal: {fileID: 100100000}
  serializedVersion: 6
  m_Component:
  - component: {fileID: 4959223355029108}
  - component: {fileID: 114981281184386898}
  m_Layer: 0
  m_Name: HUD_Manager
  m_TagString: HUD
  m_Icon: {fileID: 0}
  m_NavMeshLayer: 0
  m_StaticEditorFlags: 0
  m_IsActive: 1
--- !u!4 &4959223355029108
Transform:
  m_ObjectHideFlags: 1
  m_CorrespondingSourceObject: {fileID: 0}
  m_PrefabInternal: {fileID: 100100000}
  m_GameObject: {fileID: 1282012895711596}
  m_LocalRotation: {x: 0, y: 0, z: 0, w: 1}
  m_LocalPosition: {x: 362.06567, y: 321.69113, z: -2.0438166}
  m_LocalScale: {x: 1, y: 1, z: 1}
  m_Children: []
  m_Father: {fileID: 0}
  m_RootOrder: 0
  m_LocalEulerAnglesHint: {x: 0, y: 0, z: 0}
--- !u!114 &114981281184386898
MonoBehaviour:
  m_ObjectHideFlags: 1
  m_CorrespondingSourceObject: {fileID: 0}
  m_PrefabInternal: {fileID: 100100000}
  m_GameObject: {fileID: 1282012895711596}
  m_Enabled: 1
  m_EditorHideFlags: 0
  m_Script: {fileID: 11500000, guid: bfdfedd08ef66914a8c1bee2d92ca602, type: 3}
  m_Name: 
  m_EditorClassIdentifier: 
  maxHealth: 100
  currentHealth: 0
  healthRegenPerSecond: 1
  maxEnergy: 100
  currentEnergy: 100
  energyRegenPerSecond: 1
  waveScale: 10
  heartRate: 0
  healthText: {fileID: 0}
  healthBlinkText: {fileID: 0}
  heartBeatTransform: {fileID: 0}
  energyFill: {fileID: 0}
  flatLine: {fileID: 0}
  healthWavesMask: {fileID: 0}
  energyLowColor: {r: 0.6082479, g: 0.8773585, b: 0.09518514, a: 1}
  energyNormalColor: {r: 0, g: 1, b: 0.8901961, a: 1}
